analysis_racingtime
…
#source("code/report_statistics.R") # This is a custom function that summarizes the test statistics, format it to latex code that can be included in latex
#source("code/plot_functions.R") # This is a custom function that plot the estimates from the emmeans model

Next, we load in the data

# We load the data
d <- read_csv("../../data/data_analysis/data_analysis.csv")
d

# A tibble: 3,067 × 16
   skigroup skier treatment session  trial strategy best_strategy_first
   <chr>    <dbl> <chr>     <chr>    <dbl> <chr>    <chr>              
 1 a            1 slfc      baseline     1 ns       d                  
 2 a            1 slfc      baseline     2 ns       d                  
 3 a            1 slfc      baseline     3 ns       d                  
 4 a            1 slfc      baseline     4 ns       d                  
 5 a            1 slfc      block1       5 a        d                  
 6 a            1 slfc      block1       6 c        d                  
 7 a            1 slfc      block1       7 b        d                  
 8 a            1 slfc      block1       8 d        d                  
 9 a            1 slfc      block1       9 d        d                  
10 a            1 slfc      block1      10 c        d                  
# ℹ 3,057 more rows
# ℹ 9 more variables: best_strategy_last <chr>, theory_best <chr>,
#   racingtime <dbl>, chose_best_strategy <dbl>, chose_theoretical_best <dbl>,
#   regret_a <dbl>, regret_b <dbl>, regret_c <dbl>, regret_d <dbl>

Acquisition

Select data

The acquisition phase of the experiment covers Block 1 (forced exploration), and Block 2 and Block 3 (free-choice). Therefore, we filter those.

d_acquisition <- filter(d, session == "block1" | session == "block2" | session == "block3")
d_acquisition 

# A tibble: 1,920 × 16
   skigroup skier treatment session trial strategy best_strategy_first
   <chr>    <dbl> <chr>     <chr>   <dbl> <chr>    <chr>              
 1 a            1 slfc      block1      5 a        d                  
 2 a            1 slfc      block1      6 c        d                  
 3 a            1 slfc      block1      7 b        d                  
 4 a            1 slfc      block1      8 d        d                  
 5 a            1 slfc      block1      9 d        d                  
 6 a            1 slfc      block1     10 c        d                  
 7 a            1 slfc      block1     11 b        d                  
 8 a            1 slfc      block1     12 a        d                  
 9 a            1 slfc      block2     13 c        d                  
10 a            1 slfc      block2     14 c        d                  
# ℹ 1,910 more rows
# ℹ 9 more variables: best_strategy_last <chr>, theory_best <chr>,
#   racingtime <dbl>, chose_best_strategy <dbl>, chose_theoretical_best <dbl>,
#   regret_a <dbl>, regret_b <dbl>, regret_c <dbl>, regret_d <dbl>
…
# Filter baseline, retention and transfer 
d_retention_and_transfer <- filter(d, session == "baseline" | session == "retention" | session == "transfer")

d_retention_and_transfer <-  select(d_retention_and_transfer , skigroup, skier, session, treatment, trial, racingtime)

baseline_avg <- d_retention_and_transfer  |>
  filter(session == "baseline") |>
  group_by(skigroup, skier) |>
  summarise(avg_baseline = round(mean(racingtime, na.rm = TRUE), digits=2)) |>
  ungroup()

baseline_avg

# A tibble: 96 × 3
   skigroup skier avg_baseline
   <chr>    <dbl>        <dbl>
 1 a            1         16.0
 2 a            2         16.4
 3 a            3         16.5
 4 a            4         16.5
 5 a            5         16.2
 6 a            6         17.0
 7 a            7         17.2
 8 a            8         17.6
 9 a            9         17.1
10 a           10         16.4
# ℹ 86 more rows

avg_baseline in the baseline_avg tibble is a column that holds the average racing time for each skier in the dataset. We can now join two tibbles with left_join

d_retention_and_transfer  <- d_retention_and_transfer |>
  left_join(baseline_avg, by = c("skigroup", "skier"))

d_retention_and_transfer

# A tibble: 1,147 × 7
   skigroup skier session   treatment trial racingtime avg_baseline
   <chr>    <dbl> <chr>     <chr>     <dbl>      <dbl>        <dbl>
 1 a            1 baseline  slfc          1       15.8         16.0
 2 a            1 baseline  slfc          2       16.2         16.0
 3 a            1 baseline  slfc          3       16.1         16.0
 4 a            1 baseline  slfc          4       16.1         16.0
 5 a            1 retention slfc         25       15.7         16.0
 6 a            1 retention slfc         26       15.9         16.0
 7 a            1 retention slfc         27       15.9         16.0
 8 a            1 retention slfc         28       NA           16.0
 9 a            1 transfer  slfc         29       16.0         16.0
10 a            1 transfer  slfc         30       15.8         16.0
# ℹ 1,137 more rows

# Filter baseline, retention and transfer 
d_retention_and_transfer <- filter(d_retention_and_transfer, session != "baseline")
d_retention_and_transfer

# A tibble: 763 × 7
   skigroup skier session   treatment trial racingtime avg_baseline
   <chr>    <dbl> <chr>     <chr>     <dbl>      <dbl>        <dbl>
 1 a            1 retention slfc         25       15.7         16.0
 2 a            1 retention slfc         26       15.9         16.0
 3 a            1 retention slfc         27       15.9         16.0
 4 a            1 retention slfc         28       NA           16.0
 5 a            1 transfer  slfc         29       16.0         16.0
 6 a            1 transfer  slfc         30       15.8         16.0
 7 a            1 transfer  slfc         31       16.1         16.0
 8 a            1 transfer  slfc         32       15.9         16.0
 9 a            2 retention slfc         25       16.1         16.4
10 a            2 retention slfc         26       16.5         16.4
# ℹ 753 more rows
…
#ggsave("test2.svg", device="svg", height=8, width=16, units="cm")

Strategies

# A tibble: 2,299 × 16
   skigroup skier treatment session trial strategy best_strategy_first
   <chr>    <dbl> <chr>     <chr>   <dbl> <chr>    <chr>              
 1 a            1 slfc      block1      5 a        d                  
 2 a            1 slfc      block1      6 c        d                  
 3 a            1 slfc      block1      7 b        d                  
 4 a            1 slfc      block1      8 d        d                  
 5 a            1 slfc      block1      9 d        d                  
 6 a            1 slfc      block1     10 c        d                  
 7 a            1 slfc      block1     11 b        d                  
 8 a            1 slfc      block1     12 a        d                  
 9 a            1 slfc      block2     13 c        d                  
10 a            1 slfc      block2     14 c        d                  
# ℹ 2,289 more rows
# ℹ 9 more variables: best_strategy_last <chr>, theory_best <chr>,
#   racingtime <dbl>, chose_best_strategy <dbl>, chose_theoretical_best <dbl>,
#   regret_a <dbl>, regret_b <dbl>, regret_c <dbl>, regret_d <dbl>
…
strategy2            < 0.0000000000000002 ***
strategy3            < 0.0000000000000002 ***
strategy4            < 0.0000000000000002 ***
treatment2                         0.8228    
treatment3                         0.8135    
strategy2:treatment2         0.0000000907 ***
strategy3:treatment2               0.0464 *  
strategy4:treatment2               0.0165 *  
strategy2:treatment3               0.3548    
strategy3:treatment3               0.7471    
strategy4:treatment3               0.3436    
---
Signif. codes:  0 '***' 0.001 '**' 0.01 '*' 0.05 '.' 0.1 ' ' 1

# A tibble: 48 × 8
   session   strategy treatment emmean    SE    df lower.CL upper.CL
   <fct>     <fct>    <fct>      <dbl> <dbl> <dbl>    <dbl>    <dbl>
 1 block1    a        rl          17.2 0.134  8.10     16.8     17.5
 2 block2    a        rl          16.9 0.134  8.11     16.6     17.2
 3 block3    a        rl          16.9 0.136  8.81     16.6     17.2
 4 retention a        rl          16.8 0.135  8.25     16.5     17.1
 5 block1    b        rl          16.7 0.133  7.87     16.4     17.0
 6 block2    b        rl          16.4 0.132  7.80     16.1     16.7
 7 block3    b        rl          16.4 0.135  8.48     16.1     16.7
 8 retention b        rl          16.3 0.133  7.93     16.0     16.6
 9 block1    c        rl          16.9 0.134  7.98     16.6     17.2
10 block2    c        rl          16.7 0.133  7.96     16.4     17.0
# ℹ 38 more rows
…
