Model: Strategy selection
…
source("../../themes/themes.R") # This is a custom theme

Next, we load in the data

# We load the data
d <- read_csv("../../data/data_analysis/data_analysis.csv")
d

# A tibble: 3,067 × 16
   skigroup skier treatment session  trial strategy best_strategy_first
   <chr>    <dbl> <chr>     <chr>    <dbl> <chr>    <chr>              
 1 a            1 slfc      baseline     1 ns       d                  
 2 a            1 slfc      baseline     2 ns       d                  
 3 a            1 slfc      baseline     3 ns       d                  
 4 a            1 slfc      baseline     4 ns       d                  
 5 a            1 slfc      block1       5 a        d                  
 6 a            1 slfc      block1       6 c        d                  
 7 a            1 slfc      block1       7 b        d                  
 8 a            1 slfc      block1       8 d        d                  
 9 a            1 slfc      block1       9 d        d                  
10 a            1 slfc      block1      10 c        d                  
# ℹ 3,057 more rows
# ℹ 9 more variables: best_strategy_last <chr>, theory_best <chr>,
#   racingtime <dbl>, chose_best_strategy <dbl>, chose_theoretical_best <dbl>,
#   regret_a <dbl>, regret_b <dbl>, regret_c <dbl>, regret_d <dbl>
…
agg_d_freechoice

# A tibble: 384 × 13
   skigroup skier session   treatment     a     b     c     d total a_percent
   <chr>    <dbl> <chr>     <chr>     <int> <int> <int> <int> <int>     <dbl>
 1 a            1 block2    slfc          0     1     3     2     6         0
 2 a            1 block3    slfc          0     2     2     2     6         0
 3 a            1 retention slfc          0     1     1     2     4         0
 4 a            1 transfer  slfc          0     1     1     2     4         0
 5 a            2 block2    slfc          0     2     0     4     6         0
 6 a            2 block3    slfc          0     2     2     2     6         0
 7 a            2 retention slfc          0     1     0     3     4         0
 8 a            2 transfer  slfc          0     1     0     3     4         0
 9 a            3 block2    rl            0     2     1     3     6         0
10 a            3 block3    rl            0     3     0     3     6         0
# ℹ 374 more rows
# ℹ 3 more variables: b_percent <dbl>, c_percent <dbl>, d_percent <dbl>
…
agg_d_freechoice <- agg_d_freechoice_mean |>
  left_join(agg_d_freechoice_sd, by = c("session", "strategy", "treatment")) |>
  ungroup() |>
  mutate(sd_value_high = percentage + sd,
         sd_value_low = percentage - sd
         )
  
agg_d_freechoice

# A tibble: 48 × 7
   session treatment strategy percentage    sd sd_value_high sd_value_low
   <chr>   <chr>     <chr>         <dbl> <dbl>         <dbl>        <dbl>
 1 block2  rl        a              0     0             0            0   
 2 block2  rl        b             43.4  20.9          64.3         22.5 
 3 block2  rl        c             11.3  14.2          25.4         -2.89
 4 block2  rl        d             45.5  22.7          68.2         22.8 
 5 block2  slfc      a              1.55  4.96          6.51        -3.42
 6 block2  slfc      b             38.8  27.5          66.3         11.2 
 7 block2  slfc      c             13.7  15.2          28.9         -1.54
 8 block2  slfc      d             45.9  29.8          75.7         16.1 
 9 block2  slts      a              0     0             0            0   
10 block2  slts      b              0     0             0            0   
# ℹ 38 more rows
…
#ggsave("test2.svg", device="svg", width=120,height=90, unit="mm")

Selection of theoretical and estimated best strategy

We will fit a multilevel generalized logistic regression model. Unfortunately, we were not able to run any models with supervised (target skill) learning because they always or nearly always picked the best strategy, so had to exclude this treatment group from the analysis.

# We filter rl and slfc because slts only select one strategy.
# We were unable to fit the model with slts

d_freechoice <- filter(d_freechoice, treatment != "slts")
d_freechoice

# A tibble: 1,255 × 16
   skigroup skier treatment session trial strategy best_strategy_first
   <chr>    <dbl> <chr>     <chr>   <dbl> <chr>    <chr>              
 1 a            1 slfc      block2     13 c        d                  
 2 a            1 slfc      block2     14 c        d                  
 3 a            1 slfc      block2     15 d        d                  
 4 a            1 slfc      block2     16 d        d                  
 5 a            1 slfc      block2     17 c        d                  
 6 a            1 slfc      block2     18 b        d                  
 7 a            1 slfc      block3     19 b        d                  
 8 a            1 slfc      block3     20 d        d                  
 9 a            1 slfc      block3     21 c        d                  
10 a            1 slfc      block3     22 c        d                  
# ℹ 1,245 more rows
# ℹ 9 more variables: best_strategy_last <chr>, theory_best <chr>,
#   racingtime <dbl>, chose_best_strategy <dbl>, chose_theoretical_best <dbl>,
#   regret_a <dbl>, regret_b <dbl>, regret_c <dbl>, regret_d <dbl>
…
