ranked
…
The following object is masked from 'package:dplyr':

    group_rows

The data was downloaded as .xlsx files and stored in the /data/data_ranking/ folder. Within this directory, there are two primary files: one for the skiers and another for the coaches.

Skiers rank data

The initial step is to load the data.

d_skier <- read_excel("../../data/data_ranking/d_skierrank.xlsx")
d_skier

# A tibble: 530 × 6
   Starttidspunkt      Fullføringstidspunkt skier rank     treatment skigroup
   <dttm>              <dttm>               <chr> <chr>    <chr>     <chr>   
 1 2023-06-02 18:00:40 2023-06-02 18:01:14  1     d;a;c;b; slfc      a       
 2 2023-06-02 19:43:50 2023-06-02 19:44:06  1     d;c;b;a; slfc      a       
 3 2023-06-03 11:39:37 2023-06-03 11:39:55  1     d;c;b;a; slfc      a       
 4 2023-06-03 14:35:53 2023-06-03 14:36:19  1     d;b;c;a; slfc      a       
 5 2023-06-04 11:07:02 2023-06-04 11:07:15  1     d;b;c;a; slfc      a       
 6 2023-06-04 13:27:59 2023-06-04 13:28:16  1     d;b;c;a; slfc      a       
 7 2023-06-02 18:01:46 2023-06-02 18:02:10  2     d;c;a;b; slfc      a       
 8 2023-06-02 19:41:49 2023-06-02 19:42:28  2     d;c;b;a; slfc      a       
 9 2023-06-03 14:37:28 2023-06-03 14:38:03  2     d;b;c;a; slfc      a       
10 2023-06-04 11:13:21 2023-06-04 11:13:39  2     b;d;c;a; slfc      a       
# ℹ 520 more rows
…
2023-06-04 13:27:59
2023-06-04 13:28:16
1
d;b;c;a;
slfc
a

Then we remove the “;” from the ranking column so that we can better read the index value of the character

d_skier$rank <- str_replace_all(d_skier$rank, ";", "")
d_skier

# A tibble: 530 × 6
   Starttidspunkt      Fullføringstidspunkt skier rank  treatment skigroup
   <dttm>              <dttm>               <chr> <chr> <chr>     <chr>   
 1 2023-06-02 18:00:40 2023-06-02 18:01:14  1     dacb  slfc      a       
 2 2023-06-02 19:43:50 2023-06-02 19:44:06  1     dcba  slfc      a       
 3 2023-06-03 11:39:37 2023-06-03 11:39:55  1     dcba  slfc      a       
 4 2023-06-03 14:35:53 2023-06-03 14:36:19  1     dbca  slfc      a       
 5 2023-06-04 11:07:02 2023-06-04 11:07:15  1     dbca  slfc      a       
 6 2023-06-04 13:27:59 2023-06-04 13:28:16  1     dbca  slfc      a       
 7 2023-06-02 18:01:46 2023-06-02 18:02:10  2     dcab  slfc      a       
 8 2023-06-02 19:41:49 2023-06-02 19:42:28  2     dcba  slfc      a       
 9 2023-06-03 14:37:28 2023-06-03 14:38:03  2     dbca  slfc      a       
10 2023-06-04 11:13:21 2023-06-04 11:13:39  2     bdca  slfc      a       
# ℹ 520 more rows
…
“Next, create a new column for each strategy and assign it an integer value corresponding to its ranking. Here, 1 is best. We can check if the rank is computed correctly by comparing the value to the rank column. This looks good

d_skier <- mutate(d_skier, a = as.integer(gregexpr("a", rank)))   
d_skier <- mutate(d_skier, b = as.integer(gregexpr("b", rank))) 
d_skier <- mutate(d_skier, c = as.integer(gregexpr("c", rank)))   
d_skier <- mutate(d_skier, d = as.integer(gregexpr("d", rank))) #

d_skier

# A tibble: 530 × 10
   Starttidspunkt      Fullføringstidspunkt skier rank  treatment skigroup     a
   <dttm>              <dttm>               <chr> <chr> <chr>     <chr>    <int>
 1 2023-06-02 18:00:40 2023-06-02 18:01:14  1     dacb  slfc      a            2
 2 2023-06-02 19:43:50 2023-06-02 19:44:06  1     dcba  slfc      a            4
 3 2023-06-03 11:39:37 2023-06-03 11:39:55  1     dcba  slfc      a            4
 4 2023-06-03 14:35:53 2023-06-03 14:36:19  1     dbca  slfc      a            4
 5 2023-06-04 11:07:02 2023-06-04 11:07:15  1     dbca  slfc      a            4
 6 2023-06-04 13:27:59 2023-06-04 13:28:16  1     dbca  slfc      a            4
 7 2023-06-02 18:01:46 2023-06-02 18:02:10  2     dcab  slfc      a            3
 8 2023-06-02 19:41:49 2023-06-02 19:42:28  2     dcba  slfc      a            4
 9 2023-06-03 14:37:28 2023-06-03 14:38:03  2     dbca  slfc      a            4
10 2023-06-04 11:13:21 2023-06-04 11:13:39  2     bdca  slfc      a            4
# ℹ 520 more rows
# ℹ 3 more variables: b <int>, c <int>, d <int>
…
We encountered some missing data, such as instances where skiers forgot to rank the strategy. To address this, we need to add these trials to the dataset to ensure accurate ranking estimation. To do this, we first create a row number index for each skier in the data using the following code

d_skier <- d_skier |>
  group_by(skigroup, skier) |>
  mutate(time = row_number()) |>
  ungroup()

d_skier 

# A tibble: 530 × 11
   Starttidspunkt      Fullføringstidspunkt skier rank  treatment skigroup     a
   <dttm>              <dttm>               <chr> <chr> <chr>     <chr>    <int>
 1 2023-06-02 18:00:40 2023-06-02 18:01:14  1     dacb  slfc      a            2
 2 2023-06-02 19:43:50 2023-06-02 19:44:06  1     dcba  slfc      a            4
 3 2023-06-03 11:39:37 2023-06-03 11:39:55  1     dcba  slfc      a            4
 4 2023-06-03 14:35:53 2023-06-03 14:36:19  1     dbca  slfc      a            4
 5 2023-06-04 11:07:02 2023-06-04 11:07:15  1     dbca  slfc      a            4
 6 2023-06-04 13:27:59 2023-06-04 13:28:16  1     dbca  slfc      a            4
 7 2023-06-02 18:01:46 2023-06-02 18:02:10  2     dcab  slfc      a            3
 8 2023-06-02 19:41:49 2023-06-02 19:42:28  2     dcba  slfc      a            4
 9 2023-06-03 14:37:28 2023-06-03 14:38:03  2     dbca  slfc      a            4
10 2023-06-04 11:13:21 2023-06-04 11:13:39  2     bdca  slfc      a            4
# ℹ 520 more rows
# ℹ 4 more variables: b <int>, c <int>, d <int>, time <int>
…
Now that we have an index number for each skier in the dataset, we proceed to load the missing data for each skier

d_skierrank_lostdata <- read_excel("../../data/data_ranking/d_skierrank_lostdata.xlsx")
d_skierrank_lostdata

# A tibble: 57 × 11
   Starttidspunkt Fullføringstidspunkt skier  time rank  treatment skigroup
   <lgl>          <lgl>                <dbl> <dbl> <chr> <chr>     <chr>   
 1 NA             NA                       2   2.5 <NA>  slfc      a       
 2 NA             NA                      23   0.5 <NA>  slfc      a       
 3 NA             NA                       5   3.5 <NA>  slfc      a       
 4 NA             NA                       1   2.5 <NA>  slts      b       
 5 NA             NA                      13   2.5 <NA>  slts      b       
 6 NA             NA                      13   3.5 <NA>  slts      b       
 7 NA             NA                       2   0.5 <NA>  rl        b       
 8 NA             NA                       2   1.5 <NA>  rl        b       
 9 NA             NA                      21   2.5 <NA>  slfc      b       
10 NA             NA                      21   3.5 <NA>  slfc      b       
# ℹ 47 more rows
# ℹ 4 more variables: a <dbl>, b <dbl>, c <dbl>, d <dbl>

We can bind the two dataframes

d_skier <- rbind(d_skier, d_skierrank_lostdata)

d_skier

# A tibble: 587 × 11
   Starttidspunkt      Fullføringstidspunkt skier rank  treatment skigroup     a
   <dttm>              <dttm>               <chr> <chr> <chr>     <chr>    <dbl>
 1 2023-06-02 18:00:40 2023-06-02 18:01:14  1     dacb  slfc      a            2
 2 2023-06-02 19:43:50 2023-06-02 19:44:06  1     dcba  slfc      a            4
 3 2023-06-03 11:39:37 2023-06-03 11:39:55  1     dcba  slfc      a            4
 4 2023-06-03 14:35:53 2023-06-03 14:36:19  1     dbca  slfc      a            4
 5 2023-06-04 11:07:02 2023-06-04 11:07:15  1     dbca  slfc      a            4
 6 2023-06-04 13:27:59 2023-06-04 13:28:16  1     dbca  slfc      a            4
 7 2023-06-02 18:01:46 2023-06-02 18:02:10  2     dcab  slfc      a            3
 8 2023-06-02 19:41:49 2023-06-02 19:42:28  2     dcba  slfc      a            4
 9 2023-06-03 14:37:28 2023-06-03 14:38:03  2     dbca  slfc      a            4
10 2023-06-04 11:13:21 2023-06-04 11:13:39  2     bdca  slfc      a            4
# ℹ 577 more rows
# ℹ 4 more variables: b <dbl>, c <dbl>, d <dbl>, time <dbl>
…
d
8
6

d
9
6

Next, we exclude some skiers that were injuried or sick. Bib 66 and 226 was not part of the experiment

d_skier 

# A tibble: 587 × 12
   Starttidspunkt      Fullføringstidspunkt skier rank  treatment skigroup     a
   <dttm>              <dttm>               <chr> <chr> <chr>     <chr>    <dbl>
 1 2023-06-02 18:00:40 2023-06-02 18:01:14  1     dacb  slfc      a            2
 2 2023-06-02 19:43:50 2023-06-02 19:44:06  1     dcba  slfc      a            4
 3 2023-06-03 11:39:37 2023-06-03 11:39:55  1     dcba  slfc      a            4
 4 2023-06-03 14:35:53 2023-06-03 14:36:19  1     dbca  slfc      a            4
 5 2023-06-04 11:07:02 2023-06-04 11:07:15  1     dbca  slfc      a            4
 6 2023-06-04 13:27:59 2023-06-04 13:28:16  1     dbca  slfc      a            4
 7 2023-06-02 16:31:58 2023-06-02 16:32:33  10    dacb  rl        a            2
 8 2023-06-02 19:41:17 2023-06-02 19:41:51  10    dcba  rl        a            4
 9 2023-06-03 13:14:41 2023-06-03 13:15:04  10    dbca  rl        a            4
10 2023-06-03 16:07:39 2023-06-03 16:07:51  10    dcba  rl        a            4
# ℹ 577 more rows
# ℹ 5 more variables: b <dbl>, c <dbl>, d <dbl>, time <dbl>, ranktime <int>

d_skier <- filter(d_skier, !(skier %in% c("50", "18", "20") & skigroup == "b"))
d_skier <- filter(d_skier, !(skier %in% c("66", "226")))

d_skier

# A tibble: 576 × 12
   Starttidspunkt      Fullføringstidspunkt skier rank  treatment skigroup     a
   <dttm>              <dttm>               <chr> <chr> <chr>     <chr>    <dbl>
 1 2023-06-02 18:00:40 2023-06-02 18:01:14  1     dacb  slfc      a            2
 2 2023-06-02 19:43:50 2023-06-02 19:44:06  1     dcba  slfc      a            4
 3 2023-06-03 11:39:37 2023-06-03 11:39:55  1     dcba  slfc      a            4
 4 2023-06-03 14:35:53 2023-06-03 14:36:19  1     dbca  slfc      a            4
 5 2023-06-04 11:07:02 2023-06-04 11:07:15  1     dbca  slfc      a            4
 6 2023-06-04 13:27:59 2023-06-04 13:28:16  1     dbca  slfc      a            4
 7 2023-06-02 16:31:58 2023-06-02 16:32:33  10    dacb  rl        a            2
 8 2023-06-02 19:41:17 2023-06-02 19:41:51  10    dcba  rl        a            4
 9 2023-06-03 13:14:41 2023-06-03 13:15:04  10    dbca  rl        a            4
10 2023-06-03 16:07:39 2023-06-03 16:07:51  10    dcba  rl        a            4
# ℹ 566 more rows
# ℹ 5 more variables: b <dbl>, c <dbl>, d <dbl>, time <dbl>, ranktime <int>

We do a final check. This looks good.

d_skier |>
  group_by(skigroup, skier) |>
  summarise(n = n()) |>
  arrange(skigroup, skier) |>
  ungroup()

`summarise()` has grouped output by 'skigroup'. You can override using the
`.groups` argument.

# A tibble: 96 × 3
   skigroup skier     n
   <chr>    <chr> <int>
 1 a        1         6
 2 a        10        6
 3 a        12        6
 4 a        13        6
 5 a        2         6
 6 a        20        6
 7 a        21        6
 8 a        22        6
 9 a        23        6
10 a        24        6
# ℹ 86 more rows
…
d_skier <- d_skier |>
  pivot_longer(cols=c(a,b,c,d), names_to = "strategy") 
d_skier

# A tibble: 2,304 × 7
   skier rank  treatment skigroup ranktime strategy value
   <chr> <chr> <chr>     <chr>       <int> <chr>    <dbl>
 1 1     dacb  slfc      a               1 a            2
 2 1     dacb  slfc      a               1 b            4
 3 1     dacb  slfc      a               1 c            3
 4 1     dacb  slfc      a               1 d            1
 5 1     dcba  slfc      a               2 a            4
 6 1     dcba  slfc      a               2 b            3
 7 1     dcba  slfc      a               2 c            2
 8 1     dcba  slfc      a               2 d            1
 9 1     dcba  slfc      a               3 a            4
10 1     dcba  slfc      a               3 b            3
# ℹ 2,294 more rows

d_skier <- mutate(d_skier, ranktime = as.factor(ranktime), strategy = as.factor(strategy))
d_skier

# A tibble: 2,304 × 7
   skier rank  treatment skigroup ranktime strategy value
   <chr> <chr> <chr>     <chr>    <fct>    <fct>    <dbl>
 1 1     dacb  slfc      a        1        a            2
 2 1     dacb  slfc      a        1        b            4
 3 1     dacb  slfc      a        1        c            3
 4 1     dacb  slfc      a        1        d            1
 5 1     dcba  slfc      a        2        a            4
 6 1     dcba  slfc      a        2        b            3
 7 1     dcba  slfc      a        2        c            2
 8 1     dcba  slfc      a        2        d            1
 9 1     dcba  slfc      a        3        a            4
10 1     dcba  slfc      a        3        b            3
# ℹ 2,294 more rows
…
tibble [2,304 × 7] (S3: tbl_df/tbl/data.frame)
 $ skier    : chr [1:2304] "1" "1" "1" "1" ...
 $ rank     : chr [1:2304] "dacb" "dacb" "dacb" "dacb" ...
 $ treatment: chr [1:2304] "slfc" "slfc" "slfc" "slfc" ...
 $ skigroup : chr [1:2304] "a" "a" "a" "a" ...
 $ ranktime : Factor w/ 6 levels "1","2","3","4",..: 1 1 1 1 2 2 2 2 3 3 ...
 $ strategy : Factor w/ 4 levels "a","b","c","d": 1 2 3 4 1 2 3 4 1 2 ...
 $ value    : num [1:2304] 2 4 3 1 4 3 2 1 4 3 ...

Here, we create a new column choicemaker and assign it the value “skier” so that we understand that this were the ranking from the skiers and not the coach.

d_skier <- mutate(d_skier, choicemaker = "skier")
d_skier

# A tibble: 2,304 × 8
   skier rank  treatment skigroup ranktime strategy value choicemaker
   <chr> <chr> <chr>     <chr>    <fct>    <fct>    <dbl> <chr>      
 1 1     dacb  slfc      a        1        a            2 skier      
 2 1     dacb  slfc      a        1        b            4 skier      
 3 1     dacb  slfc      a        1        c            3 skier      
 4 1     dacb  slfc      a        1        d            1 skier      
 5 1     dcba  slfc      a        2        a            4 skier      
 6 1     dcba  slfc      a        2        b            3 skier      
 7 1     dcba  slfc      a        2        c            2 skier      
 8 1     dcba  slfc      a        2        d            1 skier      
 9 1     dcba  slfc      a        3        a            4 skier      
10 1     dcba  slfc      a        3        b            3 skier      
# ℹ 2,294 more rows
…
d_coach <- read_excel("../../data/data_ranking/d_coachrank.xlsx")
d_coach

# A tibble: 32 × 5
   completed           coach rank     skigroup time 
   <dttm>              <chr> <chr>    <chr>    <chr>
 1 2023-06-02 18:01:28 a     a;d;c;b; a        rank1
 2 2023-06-02 18:06:27 b     d;b;c;a; a        rank1
 3 2023-06-02 19:35:09 b     d;b;c;a; a        rank2
 4 2023-06-02 19:35:48 a     a;c;d;b; a        rank2
 5 2023-06-03 11:43:06 b     d;b;c;a; a        rank3
 6 2023-06-03 11:44:18 a     d;c;a;b; a        rank3
 7 2023-06-03 14:35:35 a     b;d;c;a; a        rank4
 8 2023-06-03 14:36:56 b     b;d;a;c; a        rank4
 9 2023-06-05 16:43:01 a     d;b;c;a; b        rank1
10 2023-06-05 16:43:07 b     b;d;c;a; b        rank1
# ℹ 22 more rows
…
Finally, we create a column with the updated index number

d_coach <- d_coach |>
arrange(skigroup, coach, time) |>
  group_by(skigroup, coach) |>
  mutate(ranktime = row_number()) |>
  ungroup()

d_coach

# A tibble: 32 × 10
   completed           coach rank  skigroup time      a     b     c     d
   <dttm>              <chr> <chr> <chr>    <chr> <int> <int> <int> <int>
 1 2023-06-02 18:01:28 a     adcb  a        rank1     1     4     3     2
 2 2023-06-02 19:35:48 a     acdb  a        rank2     1     4     2     3
 3 2023-06-03 11:44:18 a     dcab  a        rank3     3     4     2     1
 4 2023-06-03 14:35:35 a     bdca  a        rank4     4     1     3     2
 5 2023-06-02 18:06:27 b     dbca  a        rank1     4     2     3     1
 6 2023-06-02 19:35:09 b     dbca  a        rank2     4     2     3     1
 7 2023-06-03 11:43:06 b     dbca  a        rank3     4     2     3     1
 8 2023-06-03 14:36:56 b     bdac  a        rank4     3     1     4     2
 9 2023-06-05 16:43:01 a     dbca  b        rank1     4     2     3     1
10 2023-06-05 19:00:34 a     dbac  b        rank2     3     2     4     1
# ℹ 22 more rows
# ℹ 1 more variable: ranktime <int>

Here we make the data into a long format

d_coach <- d_coach |>
   select(-c(`completed`, `time`))

d_coach <- d_coach |>
  pivot_longer(cols=c(a,b,c,d), names_to = "strategy") 
d_coach

# A tibble: 128 × 6
   coach rank  skigroup ranktime strategy value
   <chr> <chr> <chr>       <int> <chr>    <int>
 1 a     adcb  a               1 a            1
 2 a     adcb  a               1 b            4
 3 a     adcb  a               1 c            3
 4 a     adcb  a               1 d            2
 5 a     acdb  a               2 a            1
 6 a     acdb  a               2 b            4
 7 a     acdb  a               2 c            2
 8 a     acdb  a               2 d            3
 9 a     dcab  a               3 a            3
10 a     dcab  a               3 b            4
# ℹ 118 more rows

d_coach <- mutate(d_coach, choicemaker = "coach", treatment = "slfc")

d_coach

# A tibble: 128 × 8
   coach rank  skigroup ranktime strategy value choicemaker treatment
   <chr> <chr> <chr>       <int> <chr>    <int> <chr>       <chr>    
 1 a     adcb  a               1 a            1 coach       slfc     
 2 a     adcb  a               1 b            4 coach       slfc     
 3 a     adcb  a               1 c            3 coach       slfc     
 4 a     adcb  a               1 d            2 coach       slfc     
 5 a     acdb  a               2 a            1 coach       slfc     
 6 a     acdb  a               2 b            4 coach       slfc     
 7 a     acdb  a               2 c            2 coach       slfc     
 8 a     acdb  a               2 d            3 coach       slfc     
 9 a     dcab  a               3 a            3 coach       slfc     
10 a     dcab  a               3 b            4 coach       slfc     
# ℹ 118 more rows

d_skier

# A tibble: 2,304 × 8
   skier rank  treatment skigroup ranktime strategy value choicemaker
   <chr> <chr> <chr>     <chr>    <fct>    <fct>    <dbl> <chr>      
 1 1     dacb  slfc      a        1        a            2 skier      
 2 1     dacb  slfc      a        1        b            4 skier      
 3 1     dacb  slfc      a        1        c            3 skier      
 4 1     dacb  slfc      a        1        d            1 skier      
 5 1     dcba  slfc      a        2        a            4 skier      
 6 1     dcba  slfc      a        2        b            3 skier      
 7 1     dcba  slfc      a        2        c            2 skier      
 8 1     dcba  slfc      a        2        d            1 skier      
 9 1     dcba  slfc      a        3        a            4 skier      
10 1     dcba  slfc      a        3        b            3 skier      
# ℹ 2,294 more rows
…
